Project2_Static
…
usrbhvr_data

# A tibble: 700 × 12
   UserID DeviceModel     OperatingSystem AppUsageTime ScreenOnTime BatteryDrain
    <dbl> <fct>           <fct>                  <dbl>        <dbl>        <dbl>
 1      1 Google Pixel 5  Android                  393          6.4         1872
 2      2 OnePlus 9       Android                  268          4.7         1331
 3      3 Xiaomi Mi 11    Android                  154          4            761
 4      4 Google Pixel 5  Android                  239          4.8         1676
 5      5 iPhone 12       iOS                      187          4.3         1367
 6      6 Google Pixel 5  Android                   99          2            940
 7      7 Samsung Galaxy… Android                  350          7.3         1802
 8      8 OnePlus 9       Android                  543         11.4         2956
 9      9 Samsung Galaxy… Android                  340          7.7         2138
10     10 iPhone 12       iOS                      424          6.6         1957
# ℹ 690 more rows
# ℹ 6 more variables: NumberofAppsInstalled <dbl>, DataUsage <dbl>, Age <dbl>,
#   Gender <fct>, UserBehaviorClass <fct>, AgeF <fct>
…
`summarise()` has grouped output by 'DeviceModel', 'OperatingSystem', 'Gender'.
You can override using the `.groups` argument.

usrbhvr_data_csg

# A tibble: 50 × 34
# Groups:   DeviceModel, OperatingSystem, Gender [10]
   DeviceModel    OperatingSystem Gender UserBehaviorClass     mean_AppUsageTime
   <fct>          <fct>           <fct>  <fct>                             <dbl>
 1 Google Pixel 5 Android         Female Between 0 and 300 MB…              62.1
 2 Google Pixel 5 Android         Female Between 300 and 600 …             128. 
 3 Google Pixel 5 Android         Female Between 600 and 1,00…             252. 
 4 Google Pixel 5 Android         Female Between 1,000 and 1,…             411  
 5 Google Pixel 5 Android         Female More than 1,500 MB/d…             554. 
 6 Google Pixel 5 Android         Male   Between 0 and 300 MB…              60.4
 7 Google Pixel 5 Android         Male   Between 300 and 600 …             133. 
 8 Google Pixel 5 Android         Male   Between 600 and 1,00…             237  
 9 Google Pixel 5 Android         Male   Between 1,000 and 1,…             408. 
10 Google Pixel 5 Android         Male   More than 1,500 MB/d…             538. 
# ℹ 40 more rows
# ℹ 29 more variables: median_AppUsageTime <dbl>, st_dev_AppUsageTime <dbl>,
#   variance_AppUsageTime <dbl>, IQR_AppUsageTime <dbl>,
#   mean_ScreenOnTime <dbl>, median_ScreenOnTime <dbl>,
#   st_dev_ScreenOnTime <dbl>, variance_ScreenOnTime <dbl>,
#   IQR_ScreenOnTime <dbl>, mean_BatteryDrain <dbl>, median_BatteryDrain <dbl>,
#   st_dev_BatteryDrain <dbl>, variance_BatteryDrain <dbl>, …
…
